^C:\USERS\OWNER\DOCUMENTS\VISUAL STUDIO 2015\PROJECTS\INVERSE MATRIX N MATRIX MULTIPLICATION\INVERSE MATRIX N MATRIX MULTIPLICATION\INVERSE MATRIX N MATRIX MULTIPLICATION.CPP
C:\USERS\OWNER\DOCUMENTS\VISUAL STUDIO 2015\PROJECTS\INVERSE MATRIX N MATRIX MULTIPLICATION\INVERSE MATRIX N MATRIX MULTIPLICATION\DEBUG\VC140.PDB
C:\USERS\OWNER\DOCUMENTS\VISUAL STUDIO 2015\PROJECTS\INVERSE MATRIX N MATRIX MULTIPLICATION\INVERSE MATRIX N MATRIX MULTIPLICATION\DEBUG\VC140.IDB
C:\USERS\OWNER\DOCUMENTS\VISUAL STUDIO 2015\PROJECTS\INVERSE MATRIX N MATRIX MULTIPLICATION\INVERSE MATRIX N MATRIX MULTIPLICATION\DEBUG\INVERSE MATRIX N MATRIX MULTIPLICATION.OBJ
